module bitbucket.org/coinswitch/go-binance/v2

go 1.13

require (
	github.com/bitly/go-simplejson v0.5.0
	github.com/bmizerany/assert v0.0.0-20160611221934-b7ed37b82869 // indirect
	github.com/davecgh/go-spew v1.1.0 // indirect
	github.com/gorilla/websocket v1.2.0
	github.com/kr/pretty v0.2.0 // indirect
	github.com/pmezard/go-difflib v1.0.0 // indirect
	github.com/stretchr/objx v0.1.0 // indirect
	github.com/stretchr/testify v1.2.1
)
